[{
    "id": "1",
    "title": "Aliens",
    "director": "James Cameron",
    "year": "1986",
    "rating": "8.5"
}, {
    "id": "2",
    "title": "The Dark Knight",
    "director": "Cristopher Nolan",
    "year": "2008",
    "rating": "10"
}]